{
  "kind": "collectionType",
  "collectionName": "banners",
  "info": {
    "singularName": "banner",
    "pluralName": "banners",
    "displayName": "Banner"
  },
  "options": {
    "draftAndPublish": true
  },
  "pluginOptions": {},
  "attributes": {
    "title": {
      "type": "string"
    },
    "description": {
      "type": "text"
    },
    "image": {
      "allowedTypes": [
        "images",
        "files",
        "videos",
        "audios"
      ],
      "type": "media",
      "multiple": false
    }
  }
}
